Wrapper for the US Energy Information Administration API Version 2 • eia2
…
And finally download data such as:

elec_retail_sales_annual_data <-
  eia2("electricity/retail-sales", frequency = "annual", data_cols = "revenue")

elec_retail_sales_annual_data
#> # A tibble: 5,000 × 7
#>    period stateid stateDescription   sectorid sectorName revenue `revenue-units`
#>     <int> <chr>   <chr>              <chr>    <chr>        <dbl> <chr>          
#>  1   2022 AL      Alabama            ALL      all secto… 10299.  million dollars
#>  2   2022 CO      Colorado           RES      residenti…  2978.  million dollars
#>  3   2022 CO      Colorado           OTH      other         NA   million dollars
#>  4   2022 CO      Colorado           IND      industrial  1357.  million dollars
#>  5   2022 CO      Colorado           COM      commercial  2446.  million dollars
#>  6   2022 CO      Colorado           ALL      all secto…  6790.  million dollars
#>  7   2022 CA      California         TRA      transport…    93.1 million dollars
#>  8   2022 CA      California         RES      residenti… 23661.  million dollars
#>  9   2022 DC      District of Colum… ALL      all secto…  1528.  million dollars
#> 10   2022 DE      Delaware           TRA      transport…     0   million dollars
#> # ℹ 4,990 more rows

A full API call can also specify facet filters and different start and end dates.

elec_retail_CO <- 
  eia2("electricity/retail-sales",
       frequency = "monthly",
       facets = list(
         stateid = c("CO", "WY")
       ),
       data_cols = c("revenue"),
       start = "2020-01",
       end = "2020-03")

elec_retail_CO
#> # A tibble: 36 × 7
#>    period  stateid stateDescription sectorid sectorName  revenue `revenue-units`
#>    <chr>   <chr>   <chr>            <chr>    <chr>         <dbl> <chr>          
#>  1 2020-03 WY      Wyoming          RES      residential  28.4   million dollars
#>  2 2020-03 WY      Wyoming          TRA      transporta…   0     million dollars
#>  3 2020-03 CO      Colorado         RES      residential 177.    million dollars
#>  4 2020-03 CO      Colorado         TRA      transporta…   0.710 million dollars
#>  5 2020-03 CO      Colorado         ALL      all sectors 434.    million dollars
#>  6 2020-03 CO      Colorado         COM      commercial  161.    million dollars
#>  7 2020-03 WY      Wyoming          IND      industrial   56.3   million dollars
#>  8 2020-03 WY      Wyoming          COM      commercial   27.6   million dollars
#>  9 2020-03 WY      Wyoming          ALL      all sectors 112.    million dollars
#> 10 2020-03 CO      Colorado         OTH      other        NA     million dollars
#> # ℹ 26 more rows

Moving from API version 1

The EIA version 2 API provides a mechanism to retrieve similar data as was available via the series ID API endpoint in the version 1 API. This web form on the EIA Open Data website can help translate version 1 series IDs into version 2 routes. In addition, this package provides a function eia1_series which can make requests using legacy series id’s.

eia1_series("ELEC.SALES.CO-RES.A")
#> # A tibble: 22 × 7
#>    period stateid stateDescription sectorid sectorName   sales `sales-units`    
#>     <int> <chr>   <chr>            <chr>    <chr>        <dbl> <chr>            
#>  1   2022 CO      Colorado         RES      residential 20834. million kilowatt…
#>  2   2021 CO      Colorado         RES      residential 20625. million kilowatt…
#>  3   2020 CO      Colorado         RES      residential 20483. million kilowatt…
#>  4   2019 CO      Colorado         RES      residential 19405. million kilowatt…
#>  5   2018 CO      Colorado         RES      residential 19287. million kilowatt…
#>  6   2017 CO      Colorado         RES      residential 18615. million kilowatt…
#>  7   2016 CO      Colorado         RES      residential 18834. million kilowatt…
#>  8   2015 CO      Colorado         RES      residential 18385. million kilowatt…
#>  9   2014 CO      Colorado         RES      residential 18093. million kilowatt…
#> 10   2013 CO      Colorado         RES      residential 18529. million kilowatt…
#> # ℹ 12 more rows
…
