…
But to retrieve data, you also need to specify other parameters, such as
the data columns you want to retrieve.

(TODO: example of how to figure out valid data columns and filters)

And finally download data such as:

``` r
elec_retail_sales_annual_data <-
  eia2("electricity/retail-sales", frequency = "annual", data_cols = "revenue")

elec_retail_sales_annual_data
#> # A tibble: 5,000 x 7
#>    period stateid stateDescription sectorid sectorName     revenue revenue-uni~1
#>     <int> <chr>   <chr>            <chr>    <chr>            <dbl> <chr>        
#>  1   2022 ID      Idaho            RES      residential      1028. million doll~
#>  2   2022 TN      Tennessee        RES      residential      5435. million doll~
#>  3   2022 TN      Tennessee        OTH      other              NA  million doll~
#>  4   2022 TN      Tennessee        IND      industrial       1570. million doll~
#>  5   2022 TN      Tennessee        COM      commercial       4322. million doll~
#>  6   2022 TN      Tennessee        ALL      all sectors     11327. million doll~
#>  7   2022 SD      South Dakota     TRA      transportation      0  million doll~
#>  8   2022 SD      South Dakota     RES      residential       646. million doll~
#>  9   2022 SD      South Dakota     OTH      other              NA  million doll~
#> 10   2022 SD      South Dakota     IND      industrial        259. million doll~
#> # ... with 4,990 more rows, and abbreviated variable name 1: `revenue-units`
```
…
